[
  "Tracking ID", 
  "Request Status", 
  "Title", 
  "Business Team", 
  "Request Date", 
  "Gump Description", 
  "Current Situation", 
  "Proposed Change", 
  "Business Impact", 
  "Requester", 
  "Affected Population", 
  "Related Business Requests", 
  "Stakeholders", 
  "TFS Request ID", 
  "Request Sub-Area", 
  "Risk", 
  "Client Experience Impact", 
  "Efficiency Gain", 
  "Calculated Overall Score"
]